Intersection,Approach,AM Peak Hour - Average Control Delay (sec/veh),AM Peak Hour - LOS,PM Peak Hour - Average Control Delay (sec/veh),PM Peak Hour - LOS
Lincoln Avenue & Florida Avenue,Eastbound,10,A,56.8,F
Lincoln Avenue & Florida Avenue,Westbound,28.4,D,11.7,B
Lincoln Avenue & Florida Avenue,Northbound,13.5,B,21,C
Lincoln Avenue & Florida Avenue,Southbound,10.1,B,22.9,C
Lincoln Avenue & Florida Avenue,Overall,15.9,C,29.8,D
Orchard Street & Florida Avenue,Eastbound,5.8,A,10.6,B
Orchard Street & Florida Avenue,Westbound,9.1,A,7.3,A
Orchard Street & Florida Avenue,Northbound,4.9,A,7.7,A
Orchard Street & Florida Avenue,Southbound,7.4,A,6.7,A
Orchard Street & Florida Avenue,Overall,7.6,A,9.1,A
Race Street & Florida Avenue,Eastbound,6.3,A,21.8,C
Race Street & Florida Avenue,Westbound,26.2,D,8.2,A
Race Street & Florida Avenue,Northbound,14,B,10.5,B
Race Street & Florida Avenue,Southbound,9.3,A,13,B
Race Street & Florida Avenue,Overall,15.7,C,14.7,B
Vine Street & Florida Avenue,Eastbound,7,A,18.2,C
Vine Street & Florida Avenue,Westbound,16.2,C,7.5,A
Vine Street & Florida Avenue,Northbound,9.6,A,9.8,A
Vine Street & Florida Avenue,Southbound,10.8,B,11,B
Vine Street & Florida Avenue,Overall,11.4,B,12.7,B
