Intersection,Approach,Average Control Delay (sec/veh),AM Peak Hour - LOS,PM Peak Hour - Average Control Delay (sec/veh),PM Peak Hour - LOS
Lincoln Avenue & Florida Avenue,Eastbound Left,27.6,C,22.8,C
Lincoln Avenue & Florida Avenue,Eastbound Through/Right,29.5,C,27.7,C
Lincoln Avenue & Florida Avenue,Westbound Left,19.3,B,16.2,B
Lincoln Avenue & Florida Avenue,Westbound Through/Right,33,C,34.1,C
Lincoln Avenue & Florida Avenue,Northbound Left,15.7,B,19.5,B
Lincoln Avenue & Florida Avenue,Northbound Through/Right,24.8,C,23.7,C
Lincoln Avenue & Florida Avenue,Southbound Left,16,B,17.5,B
Lincoln Avenue & Florida Avenue,Southbound Through,25.7,C,43.5,D
Lincoln Avenue & Florida Avenue,Southbound Right,5.1,A,5.1,A
Lincoln Avenue & Florida Avenue,Overall,25.2,C,27.3,C
Orchard Street & Florida Avenue,Eastbound Left,20,B,14.5,B
Orchard Street & Florida Avenue,Eastbound Through/Right,27.7,C,39.7,D
Orchard Street & Florida Avenue,Westbound Left,18.8,B,14.2,B
Orchard Street & Florida Avenue,Westbound Through/Right,48.8,D,29.7,C
Orchard Street & Florida Avenue,Northbound Left/Through/Right,19,B,15.8,B
Orchard Street & Florida Avenue,Southbound Left/Through/Right,7.5,A,8.7,A
Orchard Street & Florida Avenue,Overall,36.7,D,32,C
Race Street & Florida Avenue,Eastbound Left,12.5,B,12.8,B
Race Street & Florida Avenue,Eastbound Through/Right,20.5,C,117.2,F
Race Street & Florida Avenue,Westbound Left,11.3,B,12.5,B
Race Street & Florida Avenue,Westbound Through/Right,40.7,E,27.9,D
Race Street & Florida Avenue,Northbound Left,14.3,B,12.3,B
Race Street & Florida Avenue,Northbound Through/Right,39.5,E,18.7,C
Race Street & Florida Avenue,Southbound Left,11.3,B,11.2,B
Race Street & Florida Avenue,Southbound Through/Right,15.5,C,50.3,F
Race Street & Florida Avenue,Overall,28.3,D,57.3,F
Vine Street & Florida Avenue,Eastbound Left,13.7,B,14,B
Vine Street & Florida Avenue,Eastbound Through/Right,15.8,C,30.5,D
Vine Street & Florida Avenue,Westbound Left/Through,32.8,D,15.6,C
Vine Street & Florida Avenue,Westbound Right,12.5,B,10.3,B
Vine Street & Florida Avenue,Northbound Left,12.8,B,11.2,B
Vine Street & Florida Avenue,Northbound Through/Right,25.9,D,14.7,B
Vine Street & Florida Avenue,Southbound Left,12.4,B,13.4,B
Vine Street & Florida Avenue,Southbound Through/Right,21.9,C,37,E
Vine Street & Florida Avenue,Overall,21.8,C,24.1,C
