Time,  7:00 AM,  8:00 AM,  9:00 AM,  10:00 AM,  11:00 AM,  12:00 AM, 1:00 PM, 2:00 PM, 3:00 PM, 4:00 PM, 5:00 PM, 6:00 PM
Eastbound,179,219,185,230,273,311,264,296,383,420,399,325
Westbound,392,412,292,275,264,305,270,252,300,346,342,220
Total,571,631,477,505,537,616,534,548,683,766,741,545
